<?xml version="1.0" standalone="no"?>
<!DOCTYPE svg PUBLIC "-//W3C//DTD SVG 1.1//EN" "http://www.w3.org/Graphics/SVG/1.1/DTD/svg11.dtd">
<svg xmlns="http://www.w3.org/2000/svg">
<metadata>Copyright (C) 2017 by original authors @ fontello.com</metadata>
<defs>
<font id="fontello" horiz-adv-x="1000" >
<font-face font-family="fontello" font-weight="400" font-stretch="normal" units-per-em="1000" ascent="850" descent="-150" />
<missing-glyph horiz-adv-x="1000" />
<glyph glyph-name="right-open" unicode="&#xe800;" d="M31 684q30 31 74 31t74-31l335-334-335-334q-31-31-74-31t-74 31-31 74 31 74l188 186-188 186q-31 32-31 74t31 74z" horiz-adv-x="514" />

<glyph glyph-name="right-open-outline" unicode="&#xe801;" d="M156-66q-63 0-110 46t-46 111 46 110l150 150-150 150q-46 46-46 110 0 65 46 111 44 44 110 44t110-44l372-371-372-372q-45-45-110-45z m0 729q-21 0-37-16t-15-36q0-20 16-37l223-223-223-224q-16-16-16-36 0-22 16-38 15-15 36-15t37 15l297 298-297 297q-15 15-37 15z" horiz-adv-x="638" />

<glyph glyph-name="star" unicode="&#xe802;" d="M741-118q-19 0-39 12l-213 121-215-121q-44-24-84 3-41 29-31 79l50 243q-10 9-39 35t-45 40l-99 90q-37 35-21 82t66 54l244 26 102 225q22 47 72 47 47 0 71-47l101-225 245-27q48-4 65-52t-21-83l-183-166 50-242q7-35-16-64t-60-30z m-425 343q-1-4-7-36t-17-84-20-92l190 107q27 14 52 0l190-107-44 213q-6 29 16 49l161 148-217 23q-30 4-41 30l-90 199-90-199q-13-26-43-30l-216-23 161-148q21-19 15-50z" horiz-adv-x="976" />

<glyph glyph-name="basket" unicode="&#xe803;" d="M357-7q0-29-21-50t-50-22-50 22-22 50 22 50 50 21 50-21 21-50z m500 0q0-29-21-50t-50-22-50 22-22 50 22 50 50 21 50-21 21-50z m72 607v-286q0-13-10-23t-22-12l-583-68q7-34 7-40 0-8-13-35h513q15 0 26-11t10-25-10-25-26-11h-571q-14 0-25 11t-11 25q0 6 5 18t9 20 12 22 8 17l-98 459h-114q-15 0-25 10t-11 25 11 26 25 10h143q9 0 16-3t10-9 8-14 4-14 3-17 3-14h670q14 0 25-11t11-25z" horiz-adv-x="928.6" />

<glyph glyph-name="export" unicode="&#xe804;" d="M209 141q0 60 9 119t31 119 57 105 90 73 125 28l0 156q0 22 17 37t42 15q28 0 46-19l312-320q-210-211-312-318-17-20-46-20-25 0-42 15t-17 37l0 156q-178-4-312-208l0 25z m-156-234q-22 0-37 16t-16 37l0 729q0 21 16 37t37 15l416 0 0-105-365 0 0-625 625 0 0 157q65 67 105 107l0-315q0-21-16-37t-37-16l-728 0z" horiz-adv-x="938" />

<glyph glyph-name="search" unicode="&#xe805;" d="M335 246l25-25q-28-28-85-86t-73-74l-27 27q16 15 74 73t86 85z m245 551q136 0 234-97t97-234-97-234-234-96q-64 0-123 24l-255-257-184 185 256 255q-26 63-26 123 0 137 98 234t234 97z m0-551q91 0 155 64t64 156-64 155-155 64-156-64-64-155 64-156 156-64z" horiz-adv-x="928" />

<glyph glyph-name="eye" unicode="&#xe806;" d="M929 314q-85 132-213 197 34-58 34-125 0-103-73-177t-177-73-177 73-73 177q0 67 34 125-128-65-213-197 75-114 187-182t242-68 243 68 186 182z m-402 215q0 11-8 19t-19 7q-70 0-120-50t-50-119q0-11 8-19t19-8 19 8 8 19q0 48 34 82t82 34q11 0 19 8t8 19z m473-215q0-19-11-38-78-129-210-206t-279-77-279 77-210 206q-11 19-11 38t11 39q78 128 210 205t279 78 279-78 210-205q11-20 11-39z" horiz-adv-x="1000" />

<glyph glyph-name="cart-arrow-down" unicode="&#xf218;" d="M714 457q0 15-10 25t-25 11-25-11l-83-81v163q0 15-10 25t-25 11-25-11-11-25v-163l-82 81q-11 11-25 11t-25-11-11-25 11-25l143-143q10-10 25-10t25 10l143 143q10 11 10 25z m-357-464q0-30-21-51t-50-21-51 21-21 51 21 50 51 21 50-21 21-50z m500 0q0-30-21-51t-50-21-51 21-21 51 21 50 51 21 50-21 21-50z m72 607v-286q0-13-9-23t-23-12l-583-68q1-4 3-12t3-15 1-13q0-8-13-35h513q15 0 26-11t10-25-10-25-26-11h-571q-14 0-25 11t-11 25q0 8 6 22t17 33 11 22l-98 459h-114q-15 0-25 10t-11 25 11 26 25 10h143q9 0 16-3t11-9 7-14 4-15 3-16 3-14h670q14 0 25-11t11-25z" horiz-adv-x="928.6" />

<glyph glyph-name="flickr" unicode="&#xf303;" d="M196 150q-80 0-138 59t-58 141q0 84 57 142t139 58 139-58 57-142q0-82-58-141t-138-59z m508 0q-80 0-138 59t-58 141q0 84 57 142t139 58 139-58 57-142q0-82-58-141t-138-59z" horiz-adv-x="900" />

<glyph glyph-name="twitter" unicode="&#xf309;" d="M920 636q-36-54-94-98l0-24q0-130-60-250t-186-203-290-83q-160 0-290 84 14-2 46-2 132 0 234 80-62 2-110 38t-66 94q10-4 34-4 26 0 50 6-66 14-108 66t-42 120l0 2q36-20 84-24-84 58-84 158 0 48 26 94 154-188 390-196-6 18-6 42 0 78 55 133t135 55q82 0 136-58 60 12 120 44-20-66-82-104 56 8 108 30z" horiz-adv-x="920" />

<glyph glyph-name="facebook" unicode="&#xf30c;" d="M500 644l-142 0q-14 0-25-15t-11-37l0-102 178 0 0-148-178 0 0-442-170 0 0 442-152 0 0 148 152 0 0 86q0 94 59 159t147 65l142 0 0-156z" horiz-adv-x="500" />

<glyph glyph-name="gplus" unicode="&#xf30f;" d="M48 572q0 58 25 102t56 65 69 34 56 15 26 2l230 0 0-4q0-22-78-36-28 0-38-6 40-20 54-56t14-96q0-102-68-158-38-38-38-54 0-18 50-64 104-90 104-178 0-140-116-194-68-34-150-34l-4 0-4 2q-2-2-4-2-24 0-54 5t-75 21-74 57-29 103q0 60 32 101t83 57 88 22 71 6l2 0q-16 22-24 47t-8 39l2 14-14 0q-64 0-110 30-74 44-74 160z m370-452q-4 52-43 84t-103 32l-16 0q-64-2-114-46-46-42-42-94t53-80 119-24q68 4 109 40t37 88z m-60 500q-30 108-122 108-12 0-20-2-40-12-58-62-16-50-2-106 14-52 47-85t71-33q12 0 18 2 42 12 63 65t3 113z m388-174l150 0 0-94-150 0 0-150-94 0 0 150-150 0 0 94 150 0 0 150 94 0 0-150z" horiz-adv-x="896" />

<glyph glyph-name="linkedin" unicode="&#xf318;" d="M204 698q0-40-29-68t-75-28q-44 0-72 28t-28 68q0 42 28 69t74 27 73-27 29-69z m-198-790l0 618 192 0 0-618-192 0z m306 420q0 86-4 198l166 0 10-86 4 0q60 100 190 100 100 0 161-67t61-199l0-366-192 0 0 342q0 134-98 134-70 0-98-72-6-12-6-48l0-356-194 0 0 420z" horiz-adv-x="900" />
</font>
</defs>
</svg>